####
#
#	OBJ File Generated by LightWave3D
#	LightWave3D OBJ Export v2.2
#
####
#	Object: 3
#
#	                Vertices: 279
#	                  Points: 0
#	                   Lines: 0
#	                   Faces: 544
#	               Materials: 1
#
####

o 3

#	             Vertex list

v 9.10825e-005 -0.0263685 -0.00855364
v -0.00592913 -0.0263782 -0.00598859
v -0.00580723 -0.0263896 0.00610232
v 0.000263487 -0.0263847 0.00854547
v 0.00628369 -0.026375 0.00598043
v 0.00872684 -0.0263662 -9.02733e-005
v 0.00616178 -0.0263635 -0.00611049
v 1.19404e-005 -0.0129907 -0.0147995
v -0.0104154 -0.0130075 -0.0103567
v -0.0102042 -0.0130273 0.0105854
v 0.00031057 -0.0130188 0.014817
v 0.0107379 -0.013002 0.0103742
v 0.0149695 -0.0129868 -0.000140527
v 0.0105267 -0.0129822 -0.0105678
v -2.74491e-005 0.000605976 -0.0170773
v -0.0120679 0.000586612 -0.0119472
v -0.011824 0.000563684 0.0122346
v 0.00031738 0.000573551 0.0171209
v 0.0123578 0.000592912 0.0119908
v 0.0172441 0.000610428 -0.000150568
v 0.0121139 0.000615838 -0.012191
v -2.06619e-005 0.0141983 -0.0147734
v -0.010448 0.0141815 -0.0103306
v -0.0102368 0.0141616 0.0106115
v 0.000277967 0.0141702 0.0148431
v 0.0107053 0.014187 0.0104003
v 0.0149369 0.0142021 -0.00011441
v 0.0104941 0.0142068 -0.0105417
v 5.53011e-005 0.0264878 -0.00576702
v -0.00403845 0.0264812 -0.00402279
v -0.00395555 0.0264734 0.00419903
v 0.000172534 0.0264768 0.00586038
v 0.00426628 0.0264833 0.00411614
v 0.00592762 0.0264893 -1.19326e-005
v 0.00418336 0.0264911 -0.00410567
v -0.00226538 -0.0247195 -0.0105169
v -0.00230899 -0.0189331 -0.0141482
v -0.00842207 -0.018943 -0.0115436
v -0.00581752 -0.0247252 -0.00900337
v -0.00908563 -0.0247324 -0.0056687
v -0.0116902 -0.0189501 -0.00820891
v -0.014171 -0.018959 -0.00204453
v -0.0105272 -0.0247375 -0.00208676
v -0.00896661 -0.0247435 0.00613427
v -0.0104801 -0.024742 0.00258211
v -0.0141239 -0.0189634 0.00262433
v -0.0115193 -0.0189661 0.00873742
v -0.00202025 -0.0189603 0.0144864
v -0.00205 -0.0247398 0.0108439
v -0.00563194 -0.0247427 0.00940236
v -0.00818463 -0.0189653 0.0120055
v 0.0087617 -0.0189448 0.0118347
v 0.00617103 -0.0247284 0.00928336
v 0.00261888 -0.0247341 0.0107969
v 0.00264861 -0.0189546 0.0144393
v 0.0145106 -0.0189288 0.00233564
v 0.0108807 -0.0247161 0.00236676
v 0.00943912 -0.0247213 0.00594871
v 0.0120298 -0.0189377 0.00850001
v 0.0144636 -0.0189244 -0.00233322
v 0.0118589 -0.0189216 -0.00844633
v 0.0093201 -0.0247101 -0.00585426
v 0.0108336 -0.0247117 -0.00230211
v 0.00852424 -0.0189225 -0.0117144
v 0.00235988 -0.0189275 -0.0141953
v 0.00240349 -0.0247139 -0.0105639
v 0.00598543 -0.024711 -0.00912237
v -0.00212505 -0.0121963 -0.0167044
v -0.00214881 -0.00399937 -0.0180776
v -0.0114076 -0.00401426 -0.0141326
v -0.0104114 -0.0122097 -0.0131738
v -0.0133745 -0.0122161 -0.0101503
v -0.0143708 -0.00402072 -0.0111091
v -0.0181282 -0.00403418 -0.00177264
v -0.0167373 -0.0122282 -0.00179444
v -0.013164 -0.0122359 0.0107251
v -0.0166946 -0.0122322 0.00243878
v -0.0180855 -0.0040382 0.00246058
v -0.0141406 -0.00404236 0.0117194
v -0.00178059 -0.00403399 0.01844
v -0.00178468 -0.0122284 0.0170511
v -0.0101405 -0.0122351 0.0136883
v -0.0111171 -0.00404158 0.0146826
v 0.0117114 -0.00401399 0.0144524
v 0.0107348 -0.0122099 0.0134778
v 0.00244853 -0.0122232 0.0170084
v 0.00245263 -0.00402887 0.0183973
v 0.018432 -0.00399407 0.00209241
v 0.0170608 -0.0121914 0.00209847
v 0.013698 -0.0122035 0.0104543
v 0.0146746 -0.00400753 0.0114289
v 0.0183894 -0.00399005 -0.0021408
v 0.0144444 -0.00398589 -0.0113996
v 0.0134875 -0.0121837 -0.0104211
v 0.0170181 -0.0121874 -0.00213475
v 0.0114209 -0.00398667 -0.0143628
v 0.00208441 -0.00399425 -0.0181202
v 0.00210816 -0.0121912 -0.016747
v 0.010464 -0.0121844 -0.0133842
v -0.00215395 0.0119035 -0.0166812
v -0.0104403 0.0118902 -0.0131506
v -0.0114169 0.00369427 -0.0141252
v -0.00215805 0.00370915 -0.0180702
v -0.0134034 0.0118837 -0.0101271
v -0.0167662 0.0118717 -0.0017713
v -0.0181375 0.00367434 -0.00176524
v -0.01438 0.00368781 -0.0111017
v -0.0131929 0.0118639 0.0107482
v -0.0141498 0.00366616 0.0117268
v -0.0180948 0.00367033 0.00246797
v -0.0167235 0.0118676 0.00246192
v -0.00178984 0.00367453 0.0184474
v -0.0111263 0.00366694 0.0146899
v -0.0101694 0.0118647 0.0137114
v -0.00181358 0.0118715 0.0170742
v 0.0117022 0.00369454 0.0144598
v 0.00244338 0.00367965 0.0184047
v 0.00241963 0.0118766 0.0170315
v 0.0107059 0.0118899 0.013501
v 0.0184228 0.00371446 0.00209981
v 0.0146653 0.00370099 0.0114363
v 0.0136691 0.0118964 0.0104774
v 0.0170319 0.0119084 0.0021216
v 0.0183801 0.00371847 -0.0021334
v 0.0169892 0.0119125 -0.00211162
v 0.0134586 0.0119162 -0.0103979
v 0.0144352 0.00372263 -0.0113922
v 0.0114116 0.00372186 -0.0143554
v 0.0104351 0.0119154 -0.0133611
v 0.00207926 0.0119086 -0.0167239
v 0.00207518 0.00371427 -0.0181128
v -0.0023243 0.0244144 -0.0104697
v -0.00587643 0.0244087 -0.0089562
v -0.00846712 0.018625 -0.0115075
v -0.00235403 0.0186349 -0.0141121
v -0.00914453 0.0244015 -0.00562151
v -0.0105861 0.0243964 -0.00203956
v -0.0142161 0.018609 -0.00200846
v -0.0117352 0.0186179 -0.00817284
v -0.00902553 0.0243904 0.00618144
v -0.0115643 0.0186019 0.0087735
v -0.014169 0.0186046 0.0026604
v -0.010539 0.024392 0.0026293
v -0.0020653 0.0186077 0.0145224
v -0.00822967 0.0186027 0.0120416
v -0.00569084 0.0243912 0.00944954
v -0.00210891 0.0243941 0.0108911
v 0.00871665 0.0186232 0.0118707
v 0.00260357 0.0186134 0.0144754
v 0.00255997 0.0243998 0.010844
v 0.00611211 0.0244055 0.00933055
v 0.0144656 0.0186392 0.00237172
v 0.0119847 0.0186303 0.00853608
v 0.0093802 0.0244126 0.00599589
v 0.0108218 0.0244178 0.00241393
v 0.0144185 0.0186436 -0.00229714
v 0.0107747 0.0244222 -0.00225493
v 0.0092612 0.0244238 -0.00580708
v 0.0118139 0.0186464 -0.00841025
v 0.00847921 0.0186455 -0.0116783
v 0.00592653 0.0244229 -0.00907518
v 0.00234458 0.02442 -0.0105168
v 0.00231484 0.0186405 -0.0141592
v -0.0040431 0.0303572 -0.00401906
v 5.06365e-005 0.0303638 -0.00576331
v -0.0039602 0.0303494 0.00420275
v 0.000167902 0.0303527 0.0058641
v 0.00426162 0.0303593 0.00411986
v 0.00592298 0.0303653 -8.2003e-006
v 0.00417872 0.0303671 -0.00410196
v -0.0103488 0.0317591 -0.0161625
v -0.00844958 0.0366895 -0.0148801
v -0.00703308 0.0402963 -0.0113476
v -0.00647886 0.0416131 -0.00651172
v -0.00693547 0.0402871 -0.00166815
v -0.00828053 0.0366736 0.00188532
v -0.0101536 0.0317408 0.00319645
v -0.0120529 0.0268104 0.00191401
v -0.0134694 0.0232036 -0.00161846
v -0.0140236 0.0218868 -0.00645435
v -0.013567 0.0232128 -0.0112979
v -0.0122219 0.0268263 -0.0148514
v -0.00952694 0.0314448 -0.0161711
v -0.00762769 0.0363751 -0.0148887
v -0.00621118 0.0399819 -0.0113562
v -0.00565699 0.0412988 -0.00652031
v -0.00611359 0.0399727 -0.00167673
v -0.00745864 0.0363592 0.00187673
v -0.00933175 0.0314264 0.00318787
v -0.011231 0.0264961 0.00190541
v -0.0126475 0.0228892 -0.00162705
v -0.0132017 0.0215724 -0.00646295
v -0.0127451 0.0228984 -0.0113065
v -0.0114 0.026512 -0.01486
v -0.0103347 0.0317557 -0.0154939
v -0.00856001 0.0363626 -0.0142955
v -0.00723645 0.0397328 -0.0109948
v -0.00671859 0.0409632 -0.00647614
v -0.00714525 0.0397242 -0.00195028
v -0.00840207 0.0363477 0.00137005
v -0.0101523 0.0317385 0.00259519
v -0.011927 0.0271316 0.00139685
v -0.0132505 0.0237614 -0.00190386
v -0.0137684 0.022531 -0.00642253
v -0.0133417 0.02377 -0.0109484
v -0.0120849 0.0271465 -0.0142687
v -0.00955882 0.0314589 -0.015502
v -0.011309 0.0268497 -0.0142768
v -0.0125659 0.0234732 -0.0109565
v -0.0129925 0.0222342 -0.00643064
v -0.0124747 0.0234646 -0.00191195
v -0.0111511 0.0268348 0.00138876
v -0.00937643 0.0314418 0.0025871
v -0.00762619 0.036051 0.00136196
v -0.00636939 0.0394275 -0.00195838
v -0.00594275 0.0406665 -0.00648425
v -0.00646058 0.039436 -0.0110029
v -0.00778417 0.0360658 -0.0143036
v 0.000177547 -0.0265992 -4.29713e-006
v -0.00995721 0.0316094 -0.0161666
v -0.00806118 0.0365409 -0.0148841
v -0.00664704 0.0401487 -0.0113517
v -0.00609371 0.0414658 -0.00651573
v -0.00654945 0.0401395 -0.00167217
v -0.00789213 0.036525 0.00188126
v -0.00976201 0.031591 0.00319237
v -0.011658 0.0266594 0.00190987
v -0.0130722 0.0230517 -0.0016226
v -0.0136255 0.0217345 -0.00645851
v -0.0131698 0.0230609 -0.0113021
v -0.0118271 0.0266753 -0.0148555
v -0.0116977 0.0269983 -0.0142728
v -0.0129523 0.023621 -0.0109525
v -0.0133781 0.0223817 -0.00642661
v -0.0128611 0.0236124 -0.00190792
v -0.0115397 0.0269835 0.00139282
v -0.00976807 0.0315916 0.00259117
v -0.00802086 0.0362019 0.00136608
v -0.00676626 0.0395793 -0.00195423
v -0.00634041 0.0408186 -0.00648008
v -0.00685746 0.0395878 -0.0109988
v -0.00817883 0.0362168 -0.0142995
v -0.00995046 0.0316087 -0.0154979
v -0.00547834 0.0297842 0.00922666
v -0.00569321 0.0298044 -0.0120822
v -0.00569168 0.0495525 -0.00956342
v -0.00550202 0.0495347 0.00924562
v 0.00625497 0.0297984 0.00910836
v 0.00604011 0.0298186 -0.0122005
v 0.00604163 0.0495667 -0.00968171
v 0.00623129 0.0495489 0.00912733
v -0.00575882 0.0336601 -0.0181282
v 0.00597448 0.0336743 -0.0182465
v 0.0060158 0.0471494 -0.0125339
v -0.00571751 0.0471352 -0.0124156
v -0.00275226 0.0155143 -0.022736
v -0.00270627 0.01551 -0.0181762
v 0.00292572 0.0155168 -0.018233
v 0.00287974 0.0155211 -0.0227928
v -0.000942787 -0.000314349 -0.0227692
v -0.000919789 -0.00031651 -0.0204894
v 0.00110771 -0.000314058 -0.0205098
v 0.00108473 -0.000311896 -0.0227897
v 0.000201889 0.0297911 0.00916939
v -1.29779e-005 0.0298113 -0.0121395
v -7.85887e-005 0.033667 -0.0181855
v -3.72761e-005 0.0471421 -0.0124729
v 0.000178219 0.0495415 0.00918835
v -1.14459e-005 0.0495594 -0.00962067
v -8.38101e-005 -0.00031331 -0.0227779
v -6.08332e-005 -0.000315471 -0.020498
v -5.68165e-005 0.0155132 -0.0182029
v -0.000102802 0.0155175 -0.0227627
v -0.00570443 0.0303512 0.000109025
v -0.00569978 0.0264752 0.000105304
v -0.0146796 0.0141663 0.000184165
v -0.0169542 0.000569098 0.000194204
v -0.014647 -0.0130226 0.000158057
v -0.00837228 -0.0263869 8.21098e-005

#	    Point/Line/Face list

usemtl Grenade
vt 0.456000 0.838000
vt 0.456000 0.918000
vt 0.396886 0.894569
f 2/-1 1/-2 219/-3
vt 0.456000 0.838000
vt 0.396886 0.894569
vt 0.372400 0.838000
f 279/-1 2/-2 219/-3
vt 0.456000 0.838000
vt 0.372400 0.838000
vt 0.396886 0.781431
f 3/-1 279/-2 219/-3
vt 0.456000 0.838000
vt 0.396886 0.781431
vt 0.456000 0.758000
f 4/-1 3/-2 219/-3
vt 0.456000 0.838000
vt 0.456000 0.758000
vt 0.515114 0.781431
f 5/-1 4/-2 219/-3
vt 0.456000 0.838000
vt 0.515114 0.781431
vt 0.539600 0.838000
f 6/-1 5/-2 219/-3
vt 0.456000 0.838000
vt 0.539600 0.838000
vt 0.515114 0.894569
f 7/-1 6/-2 219/-3
vt 0.456000 0.838000
vt 0.515114 0.894569
vt 0.456000 0.918000
f 1/-1 7/-2 219/-3
vt 0.304110 0.623683
vt 0.285600 0.623683
vt 0.282807 0.656218
f 37/-1 36/-2 39/-3
vt 0.304110 0.623683
vt 0.282807 0.656218
vt 0.306903 0.656218
f 38/-1 37/-2 39/-3
vt 0.326550 0.623683
vt 0.323757 0.656218
vt 0.347853 0.656218
f 42/-1 41/-2 40/-3
vt 0.345060 0.623683
vt 0.326550 0.623683
vt 0.347853 0.656218
f 42/-1 40/-2 43/-3
vt 0.058410 0.623683
vt 0.039900 0.623683
vt 0.037107 0.656218
f 46/-1 45/-2 44/-3
vt 0.058410 0.623683
vt 0.037107 0.656218
vt 0.061203 0.656218
f 47/-1 46/-2 44/-3
vt 0.080850 0.623683
vt 0.102153 0.656218
vt 0.099360 0.623683
f 49/-1 48/-2 50/-3
vt 0.080850 0.623683
vt 0.078057 0.656218
vt 0.102153 0.656218
f 48/-1 51/-2 50/-3
vt 0.140310 0.623683
vt 0.119007 0.656218
vt 0.143103 0.656218
f 52/-1 55/-2 53/-3
vt 0.121800 0.623683
vt 0.119007 0.656218
vt 0.140310 0.623683
f 53/-1 55/-2 54/-3
vt 0.162750 0.623683
vt 0.184053 0.656218
vt 0.181260 0.623683
f 57/-1 56/-2 58/-3
vt 0.162750 0.623683
vt 0.159957 0.656218
vt 0.184053 0.656218
f 56/-1 59/-2 58/-3
vt 0.222210 0.623683
vt 0.200907 0.656218
vt 0.225003 0.656218
f 61/-1 60/-2 62/-3
vt 0.203700 0.623683
vt 0.200907 0.656218
vt 0.222210 0.623683
f 62/-1 60/-2 63/-3
vt 0.244650 0.623683
vt 0.241857 0.656218
vt 0.265953 0.656218
f 65/-1 64/-2 67/-3
vt 0.263160 0.623683
vt 0.244650 0.623683
vt 0.265953 0.656218
f 65/-1 67/-2 66/-3
vt 0.308825 0.689906
vt 0.280885 0.689906
vt 0.280397 0.736016
f 69/-1 68/-2 71/-3
vt 0.308825 0.689906
vt 0.280397 0.736016
vt 0.309313 0.736016
f 70/-1 69/-2 71/-3
vt 0.321835 0.689906
vt 0.321347 0.736016
vt 0.350263 0.736016
f 74/-1 73/-2 72/-3
vt 0.349775 0.689906
vt 0.321835 0.689906
vt 0.350263 0.736016
f 74/-1 72/-2 75/-3
vt 0.063125 0.689906
vt 0.035185 0.689906
vt 0.034697 0.736016
f 78/-1 77/-2 76/-3
vt 0.063125 0.689906
vt 0.034697 0.736016
vt 0.063613 0.736016
f 79/-1 78/-2 76/-3
vt 0.076135 0.689906
vt 0.104563 0.736016
vt 0.104075 0.689906
f 81/-1 80/-2 82/-3
vt 0.076135 0.689906
vt 0.075647 0.736016
vt 0.104563 0.736016
f 80/-1 83/-2 82/-3
vt 0.145025 0.689906
vt 0.116597 0.736016
vt 0.145513 0.736016
f 84/-1 87/-2 85/-3
vt 0.117085 0.689906
vt 0.116597 0.736016
vt 0.145025 0.689906
f 85/-1 87/-2 86/-3
vt 0.158035 0.689906
vt 0.186463 0.736016
vt 0.185975 0.689906
f 89/-1 88/-2 90/-3
vt 0.158035 0.689906
vt 0.157547 0.736016
vt 0.186463 0.736016
f 88/-1 91/-2 90/-3
vt 0.226925 0.689906
vt 0.198497 0.736016
vt 0.227413 0.736016
f 93/-1 92/-2 94/-3
vt 0.198985 0.689906
vt 0.198497 0.736016
vt 0.226925 0.689906
f 94/-1 92/-2 95/-3
vt 0.239935 0.689906
vt 0.239447 0.736016
vt 0.268363 0.736016
f 97/-1 96/-2 99/-3
vt 0.267875 0.689906
vt 0.239935 0.689906
vt 0.268363 0.736016
f 97/-1 99/-2 98/-3
vt 0.280397 0.770985
vt 0.280885 0.817096
vt 0.308825 0.817096
f 101/-1 100/-2 103/-3
vt 0.309313 0.770985
vt 0.280397 0.770985
vt 0.308825 0.817096
f 101/-1 103/-2 102/-3
vt 0.350263 0.770985
vt 0.321835 0.817096
vt 0.349775 0.817096
f 105/-1 104/-2 106/-3
vt 0.350263 0.770985
vt 0.321347 0.770985
vt 0.321835 0.817096
f 104/-1 107/-2 106/-3
vt 0.063613 0.770985
vt 0.034697 0.770985
vt 0.063125 0.817096
f 108/-1 110/-2 109/-3
vt 0.034697 0.770985
vt 0.035185 0.817096
vt 0.063125 0.817096
f 108/-1 111/-2 110/-3
vt 0.075647 0.770985
vt 0.076135 0.817096
vt 0.104563 0.770985
f 112/-1 114/-2 113/-3
vt 0.104563 0.770985
vt 0.076135 0.817096
vt 0.104075 0.817096
f 115/-1 114/-2 112/-3
vt 0.116597 0.770985
vt 0.145025 0.817096
vt 0.145513 0.770985
f 116/-1 119/-2 117/-3
vt 0.116597 0.770985
vt 0.117085 0.817096
vt 0.145025 0.817096
f 119/-1 118/-2 117/-3
vt 0.157547 0.770985
vt 0.158035 0.817096
vt 0.186463 0.770985
f 120/-1 122/-2 121/-3
vt 0.186463 0.770985
vt 0.158035 0.817096
vt 0.185975 0.817096
f 123/-1 122/-2 120/-3
vt 0.198497 0.770985
vt 0.198985 0.817096
vt 0.226925 0.817096
f 126/-1 125/-2 124/-3
vt 0.198497 0.770985
vt 0.226925 0.817096
vt 0.227413 0.770985
f 127/-1 126/-2 124/-3
vt 0.268363 0.770985
vt 0.239447 0.770985
vt 0.239935 0.817096
f 129/-1 128/-2 131/-3
vt 0.268363 0.770985
vt 0.239935 0.817096
vt 0.267875 0.817096
f 130/-1 129/-2 131/-3
vt 0.282807 0.846583
vt 0.285600 0.879118
vt 0.304110 0.879118
f 133/-1 132/-2 135/-3
vt 0.306903 0.846583
vt 0.282807 0.846583
vt 0.304110 0.879118
f 133/-1 135/-2 134/-3
vt 0.347853 0.846583
vt 0.326550 0.879118
vt 0.345060 0.879118
f 137/-1 136/-2 138/-3
vt 0.347853 0.846583
vt 0.323757 0.846583
vt 0.326550 0.879118
f 136/-1 139/-2 138/-3
vt 0.061203 0.846583
vt 0.037107 0.846583
vt 0.058410 0.879118
f 140/-1 142/-2 141/-3
vt 0.037107 0.846583
vt 0.039900 0.879118
vt 0.058410 0.879118
f 140/-1 143/-2 142/-3
vt 0.078057 0.846583
vt 0.080850 0.879118
vt 0.102153 0.846583
f 144/-1 146/-2 145/-3
vt 0.102153 0.846583
vt 0.080850 0.879118
vt 0.099360 0.879118
f 147/-1 146/-2 144/-3
vt 0.119007 0.846583
vt 0.140310 0.879118
vt 0.143103 0.846583
f 148/-1 151/-2 149/-3
vt 0.119007 0.846583
vt 0.121800 0.879118
vt 0.140310 0.879118
f 151/-1 150/-2 149/-3
vt 0.159957 0.846583
vt 0.162750 0.879118
vt 0.184053 0.846583
f 152/-1 154/-2 153/-3
vt 0.184053 0.846583
vt 0.162750 0.879118
vt 0.181260 0.879118
f 155/-1 154/-2 152/-3
vt 0.200907 0.846583
vt 0.203700 0.879118
vt 0.222210 0.879118
f 158/-1 157/-2 156/-3
vt 0.200907 0.846583
vt 0.222210 0.879118
vt 0.225003 0.846583
f 159/-1 158/-2 156/-3
vt 0.265953 0.846583
vt 0.241857 0.846583
vt 0.244650 0.879118
f 161/-1 160/-2 163/-3
vt 0.265953 0.846583
vt 0.244650 0.879118
vt 0.263160 0.879118
f 162/-1 161/-2 163/-3
vt 0.314723 0.601800
vt 0.274380 0.601800
vt 0.285600 0.623683
f 36/-1 1/-2 2/-3
vt 0.314723 0.601800
vt 0.285600 0.623683
vt 0.304110 0.623683
f 39/-1 36/-2 2/-3
vt 0.274380 0.601800
vt 0.274380 0.677032
vt 0.282807 0.656218
f 37/-1 8/-2 1/-3
vt 0.274380 0.601800
vt 0.282807 0.656218
vt 0.285600 0.623683
f 36/-1 37/-2 1/-3
vt 0.306903 0.656218
vt 0.282807 0.656218
vt 0.314978 0.677032
f 9/-1 37/-2 38/-3
vt 0.282807 0.656218
vt 0.274380 0.677032
vt 0.314978 0.677032
f 9/-1 8/-2 37/-3
vt 0.314723 0.601800
vt 0.304110 0.623683
vt 0.306903 0.656218
f 38/-1 39/-2 2/-3
vt 0.314723 0.601800
vt 0.306903 0.656218
vt 0.314978 0.677032
f 9/-1 38/-2 2/-3
vt 0.355411 0.601800
vt 0.314723 0.601800
vt 0.326550 0.623683
f 40/-1 2/-2 279/-3
vt 0.355411 0.601800
vt 0.326550 0.623683
vt 0.345060 0.623683
f 43/-1 40/-2 279/-3
vt 0.314723 0.601800
vt 0.314978 0.677032
vt 0.326550 0.623683
f 40/-1 9/-2 2/-3
vt 0.326550 0.623683
vt 0.314978 0.677032
vt 0.323757 0.656218
f 41/-1 9/-2 40/-3
vt 0.347853 0.656218
vt 0.323757 0.656218
vt 0.314978 0.677032
f 9/-1 41/-2 42/-3
vt 0.347853 0.656218
vt 0.314978 0.677032
vt 0.355778 0.677032
f 278/-1 9/-2 42/-3
vt 0.355411 0.601800
vt 0.345060 0.623683
vt 0.347853 0.656218
f 42/-1 43/-2 279/-3
vt 0.355411 0.601800
vt 0.347853 0.656218
vt 0.355778 0.677032
f 278/-1 42/-2 279/-3
vt 0.069008 0.601800
vt 0.058410 0.623683
vt 0.061203 0.656218
f 47/-1 44/-2 3/-3
vt 0.069008 0.601800
vt 0.061203 0.656218
vt 0.069273 0.677032
f 10/-1 47/-2 3/-3
vt 0.069008 0.601800
vt 0.027811 0.601800
vt 0.039900 0.623683
f 45/-1 279/-2 3/-3
vt 0.069008 0.601800
vt 0.039900 0.623683
vt 0.058410 0.623683
f 44/-1 45/-2 3/-3
vt 0.027811 0.601800
vt 0.028178 0.677032
vt 0.037107 0.656218
f 46/-1 278/-2 279/-3
vt 0.027811 0.601800
vt 0.037107 0.656218
vt 0.039900 0.623683
f 45/-1 46/-2 279/-3
vt 0.061203 0.656218
vt 0.037107 0.656218
vt 0.069273 0.677032
f 10/-1 46/-2 47/-3
vt 0.037107 0.656218
vt 0.028178 0.677032
vt 0.069273 0.677032
f 10/-1 278/-2 46/-3
vt 0.078057 0.656218
vt 0.069273 0.677032
vt 0.102153 0.656218
f 48/-1 10/-2 51/-3
vt 0.102153 0.656218
vt 0.069273 0.677032
vt 0.110580 0.677032
f 11/-1 10/-2 48/-3
vt 0.110580 0.601800
vt 0.099360 0.623683
vt 0.102153 0.656218
f 48/-1 49/-2 4/-3
vt 0.110580 0.601800
vt 0.102153 0.656218
vt 0.110580 0.677032
f 11/-1 48/-2 4/-3
vt 0.069008 0.601800
vt 0.080850 0.623683
vt 0.110580 0.601800
f 4/-1 50/-2 3/-3
vt 0.110580 0.601800
vt 0.080850 0.623683
vt 0.099360 0.623683
f 49/-1 50/-2 4/-3
vt 0.069008 0.601800
vt 0.069273 0.677032
vt 0.080850 0.623683
f 50/-1 10/-2 3/-3
vt 0.080850 0.623683
vt 0.069273 0.677032
vt 0.078057 0.656218
f 51/-1 10/-2 50/-3
vt 0.119007 0.656218
vt 0.110580 0.677032
vt 0.151887 0.677032
f 12/-1 11/-2 55/-3
vt 0.119007 0.656218
vt 0.151887 0.677032
vt 0.143103 0.656218
f 52/-1 12/-2 55/-3
vt 0.152152 0.601800
vt 0.140310 0.623683
vt 0.151887 0.677032
f 12/-1 53/-2 5/-3
vt 0.140310 0.623683
vt 0.143103 0.656218
vt 0.151887 0.677032
f 12/-1 52/-2 53/-3
vt 0.110580 0.601800
vt 0.121800 0.623683
vt 0.140310 0.623683
f 53/-1 54/-2 4/-3
vt 0.110580 0.601800
vt 0.140310 0.623683
vt 0.152152 0.601800
f 5/-1 53/-2 4/-3
vt 0.110580 0.601800
vt 0.110580 0.677032
vt 0.119007 0.656218
f 55/-1 11/-2 4/-3
vt 0.110580 0.601800
vt 0.119007 0.656218
vt 0.121800 0.623683
f 54/-1 55/-2 4/-3
vt 0.159957 0.656218
vt 0.151887 0.677032
vt 0.184053 0.656218
f 56/-1 12/-2 59/-3
vt 0.184053 0.656218
vt 0.151887 0.677032
vt 0.192982 0.677032
f 13/-1 12/-2 56/-3
vt 0.193349 0.601800
vt 0.184053 0.656218
vt 0.192982 0.677032
f 13/-1 56/-2 6/-3
vt 0.193349 0.601800
vt 0.181260 0.623683
vt 0.184053 0.656218
f 56/-1 57/-2 6/-3
vt 0.152152 0.601800
vt 0.162750 0.623683
vt 0.181260 0.623683
f 57/-1 58/-2 5/-3
vt 0.152152 0.601800
vt 0.181260 0.623683
vt 0.193349 0.601800
f 6/-1 57/-2 5/-3
vt 0.152152 0.601800
vt 0.151887 0.677032
vt 0.162750 0.623683
f 58/-1 12/-2 5/-3
vt 0.162750 0.623683
vt 0.151887 0.677032
vt 0.159957 0.656218
f 59/-1 12/-2 58/-3
vt 0.193349 0.601800
vt 0.192982 0.677032
vt 0.200907 0.656218
f 60/-1 13/-2 6/-3
vt 0.193349 0.601800
vt 0.200907 0.656218
vt 0.203700 0.623683
f 63/-1 60/-2 6/-3
vt 0.200907 0.656218
vt 0.192982 0.677032
vt 0.233782 0.677032
f 14/-1 13/-2 60/-3
vt 0.200907 0.656218
vt 0.233782 0.677032
vt 0.225003 0.656218
f 61/-1 14/-2 60/-3
vt 0.234037 0.601800
vt 0.222210 0.623683
vt 0.225003 0.656218
f 61/-1 62/-2 7/-3
vt 0.234037 0.601800
vt 0.225003 0.656218
vt 0.233782 0.677032
f 14/-1 61/-2 7/-3
vt 0.193349 0.601800
vt 0.203700 0.623683
vt 0.222210 0.623683
f 62/-1 63/-2 6/-3
vt 0.193349 0.601800
vt 0.222210 0.623683
vt 0.234037 0.601800
f 7/-1 62/-2 6/-3
vt 0.234037 0.601800
vt 0.233782 0.677032
vt 0.241857 0.656218
f 64/-1 14/-2 7/-3
vt 0.234037 0.601800
vt 0.241857 0.656218
vt 0.244650 0.623683
f 67/-1 64/-2 7/-3
vt 0.265953 0.656218
vt 0.241857 0.656218
vt 0.233782 0.677032
f 14/-1 64/-2 65/-3
vt 0.265953 0.656218
vt 0.233782 0.677032
vt 0.274380 0.677032
f 8/-1 14/-2 65/-3
vt 0.274380 0.601800
vt 0.263160 0.623683
vt 0.265953 0.656218
f 65/-1 66/-2 1/-3
vt 0.274380 0.601800
vt 0.265953 0.656218
vt 0.274380 0.677032
f 8/-1 65/-2 1/-3
vt 0.234037 0.601800
vt 0.244650 0.623683
vt 0.263160 0.623683
f 66/-1 67/-2 7/-3
vt 0.274380 0.601800
vt 0.234037 0.601800
vt 0.263160 0.623683
f 66/-1 7/-2 1/-3
vt 0.314978 0.677032
vt 0.274380 0.677032
vt 0.280885 0.689906
f 68/-1 8/-2 9/-3
vt 0.314978 0.677032
vt 0.280885 0.689906
vt 0.308825 0.689906
f 71/-1 68/-2 9/-3
vt 0.274380 0.677032
vt 0.274380 0.753517
vt 0.280397 0.736016
f 69/-1 15/-2 8/-3
vt 0.274380 0.677032
vt 0.280397 0.736016
vt 0.280885 0.689906
f 68/-1 69/-2 8/-3
vt 0.309313 0.736016
vt 0.280397 0.736016
vt 0.315025 0.753517
f 16/-1 69/-2 70/-3
vt 0.280397 0.736016
vt 0.274380 0.753517
vt 0.315025 0.753517
f 16/-1 15/-2 69/-3
vt 0.314978 0.677032
vt 0.308825 0.689906
vt 0.309313 0.736016
f 70/-1 71/-2 9/-3
vt 0.314978 0.677032
vt 0.309313 0.736016
vt 0.315025 0.753517
f 16/-1 70/-2 9/-3
vt 0.355778 0.677032
vt 0.321835 0.689906
vt 0.349775 0.689906
f 75/-1 72/-2 278/-3
vt 0.355778 0.677032
vt 0.314978 0.677032
vt 0.321835 0.689906
f 72/-1 9/-2 278/-3
vt 0.314978 0.677032
vt 0.315025 0.753517
vt 0.321347 0.736016
f 73/-1 16/-2 9/-3
vt 0.314978 0.677032
vt 0.321347 0.736016
vt 0.321835 0.689906
f 72/-1 73/-2 9/-3
vt 0.350263 0.736016
vt 0.321347 0.736016
vt 0.315025 0.753517
f 16/-1 73/-2 74/-3
vt 0.350263 0.736016
vt 0.315025 0.753517
vt 0.355846 0.753517
f 277/-1 16/-2 74/-3
vt 0.355778 0.677032
vt 0.349775 0.689906
vt 0.350263 0.736016
f 74/-1 75/-2 278/-3
vt 0.355778 0.677032
vt 0.350263 0.736016
vt 0.355846 0.753517
f 277/-1 74/-2 278/-3
vt 0.069273 0.677032
vt 0.063125 0.689906
vt 0.063613 0.736016
f 79/-1 76/-2 10/-3
vt 0.069273 0.677032
vt 0.063613 0.736016
vt 0.069321 0.753517
f 17/-1 79/-2 10/-3
vt 0.069273 0.677032
vt 0.028178 0.677032
vt 0.035185 0.689906
f 77/-1 278/-2 10/-3
vt 0.069273 0.677032
vt 0.035185 0.689906
vt 0.063125 0.689906
f 76/-1 77/-2 10/-3
vt 0.028178 0.677032
vt 0.028246 0.753517
vt 0.034697 0.736016
f 78/-1 277/-2 278/-3
vt 0.028178 0.677032
vt 0.034697 0.736016
vt 0.035185 0.689906
f 77/-1 78/-2 278/-3
vt 0.063613 0.736016
vt 0.034697 0.736016
vt 0.069321 0.753517
f 17/-1 78/-2 79/-3
vt 0.034697 0.736016
vt 0.028246 0.753517
vt 0.069321 0.753517
f 17/-1 277/-2 78/-3
vt 0.075647 0.736016
vt 0.069321 0.753517
vt 0.104563 0.736016
f 80/-1 17/-2 83/-3
vt 0.104563 0.736016
vt 0.069321 0.753517
vt 0.110580 0.753517
f 18/-1 17/-2 80/-3
vt 0.110580 0.677032
vt 0.104075 0.689906
vt 0.104563 0.736016
f 80/-1 81/-2 11/-3
vt 0.110580 0.677032
vt 0.104563 0.736016
vt 0.110580 0.753517
f 18/-1 80/-2 11/-3
vt 0.069273 0.677032
vt 0.076135 0.689906
vt 0.110580 0.677032
f 11/-1 82/-2 10/-3
vt 0.110580 0.677032
vt 0.076135 0.689906
vt 0.104075 0.689906
f 81/-1 82/-2 11/-3
vt 0.069273 0.677032
vt 0.069321 0.753517
vt 0.075647 0.736016
f 83/-1 17/-2 10/-3
vt 0.069273 0.677032
vt 0.075647 0.736016
vt 0.076135 0.689906
f 82/-1 83/-2 10/-3
vt 0.116597 0.736016
vt 0.110580 0.753517
vt 0.151839 0.753517
f 19/-1 18/-2 87/-3
vt 0.116597 0.736016
vt 0.151839 0.753517
vt 0.145513 0.736016
f 84/-1 19/-2 87/-3
vt 0.151887 0.677032
vt 0.145025 0.689906
vt 0.145513 0.736016
f 84/-1 85/-2 12/-3
vt 0.151887 0.677032
vt 0.145513 0.736016
vt 0.151839 0.753517
f 19/-1 84/-2 12/-3
vt 0.110580 0.677032
vt 0.117085 0.689906
vt 0.145025 0.689906
f 85/-1 86/-2 11/-3
vt 0.110580 0.677032
vt 0.145025 0.689906
vt 0.151887 0.677032
f 12/-1 85/-2 11/-3
vt 0.110580 0.677032
vt 0.110580 0.753517
vt 0.116597 0.736016
f 87/-1 18/-2 11/-3
vt 0.110580 0.677032
vt 0.116597 0.736016
vt 0.117085 0.689906
f 86/-1 87/-2 11/-3
vt 0.157547 0.736016
vt 0.151839 0.753517
vt 0.186463 0.736016
f 88/-1 19/-2 91/-3
vt 0.186463 0.736016
vt 0.151839 0.753517
vt 0.192914 0.753517
f 20/-1 19/-2 88/-3
vt 0.192982 0.677032
vt 0.186463 0.736016
vt 0.192914 0.753517
f 20/-1 88/-2 13/-3
vt 0.192982 0.677032
vt 0.185975 0.689906
vt 0.186463 0.736016
f 88/-1 89/-2 13/-3
vt 0.151887 0.677032
vt 0.158035 0.689906
vt 0.185975 0.689906
f 89/-1 90/-2 12/-3
vt 0.151887 0.677032
vt 0.185975 0.689906
vt 0.192982 0.677032
f 13/-1 89/-2 12/-3
vt 0.151887 0.677032
vt 0.151839 0.753517
vt 0.157547 0.736016
f 91/-1 19/-2 12/-3
vt 0.151887 0.677032
vt 0.157547 0.736016
vt 0.158035 0.689906
f 90/-1 91/-2 12/-3
vt 0.192982 0.677032
vt 0.192914 0.753517
vt 0.198497 0.736016
f 92/-1 20/-2 13/-3
vt 0.192982 0.677032
vt 0.198497 0.736016
vt 0.198985 0.689906
f 95/-1 92/-2 13/-3
vt 0.198497 0.736016
vt 0.192914 0.753517
vt 0.233735 0.753517
f 21/-1 20/-2 92/-3
vt 0.198497 0.736016
vt 0.233735 0.753517
vt 0.227413 0.736016
f 93/-1 21/-2 92/-3
vt 0.233782 0.677032
vt 0.226925 0.689906
vt 0.227413 0.736016
f 93/-1 94/-2 14/-3
vt 0.233782 0.677032
vt 0.227413 0.736016
vt 0.233735 0.753517
f 21/-1 93/-2 14/-3
vt 0.192982 0.677032
vt 0.198985 0.689906
vt 0.226925 0.689906
f 94/-1 95/-2 13/-3
vt 0.192982 0.677032
vt 0.226925 0.689906
vt 0.233782 0.677032
f 14/-1 94/-2 13/-3
vt 0.233782 0.677032
vt 0.233735 0.753517
vt 0.239447 0.736016
f 96/-1 21/-2 14/-3
vt 0.233782 0.677032
vt 0.239447 0.736016
vt 0.239935 0.689906
f 99/-1 96/-2 14/-3
vt 0.268363 0.736016
vt 0.239447 0.736016
vt 0.233735 0.753517
f 21/-1 96/-2 97/-3
vt 0.268363 0.736016
vt 0.233735 0.753517
vt 0.274380 0.753517
f 15/-1 21/-2 97/-3
vt 0.274380 0.677032
vt 0.268363 0.736016
vt 0.274380 0.753517
f 15/-1 97/-2 8/-3
vt 0.274380 0.677032
vt 0.267875 0.689906
vt 0.268363 0.736016
f 97/-1 98/-2 8/-3
vt 0.233782 0.677032
vt 0.239935 0.689906
vt 0.267875 0.689906
f 98/-1 99/-2 14/-3
vt 0.274380 0.677032
vt 0.233782 0.677032
vt 0.267875 0.689906
f 98/-1 14/-2 8/-3
vt 0.274380 0.753517
vt 0.274380 0.830002
vt 0.280397 0.770985
f 103/-1 22/-2 15/-3
vt 0.280397 0.770985
vt 0.274380 0.830002
vt 0.280885 0.817096
f 100/-1 22/-2 103/-3
vt 0.308825 0.817096
vt 0.280885 0.817096
vt 0.314978 0.830002
f 23/-1 100/-2 101/-3
vt 0.280885 0.817096
vt 0.274380 0.830002
vt 0.314978 0.830002
f 23/-1 22/-2 100/-3
vt 0.315025 0.753517
vt 0.309313 0.770985
vt 0.314978 0.830002
f 23/-1 102/-2 16/-3
vt 0.309313 0.770985
vt 0.308825 0.817096
vt 0.314978 0.830002
f 23/-1 101/-2 102/-3
vt 0.315025 0.753517
vt 0.274380 0.753517
vt 0.280397 0.770985
f 103/-1 15/-2 16/-3
vt 0.315025 0.753517
vt 0.280397 0.770985
vt 0.309313 0.770985
f 102/-1 103/-2 16/-3
vt 0.315025 0.753517
vt 0.314978 0.830002
vt 0.321347 0.770985
f 107/-1 23/-2 16/-3
vt 0.321347 0.770985
vt 0.314978 0.830002
vt 0.321835 0.817096
f 104/-1 23/-2 107/-3
vt 0.349775 0.817096
vt 0.321835 0.817096
vt 0.355778 0.830002
f 276/-1 104/-2 105/-3
vt 0.321835 0.817096
vt 0.314978 0.830002
vt 0.355778 0.830002
f 276/-1 23/-2 104/-3
vt 0.350263 0.770985
vt 0.349775 0.817096
vt 0.355778 0.830002
f 276/-1 105/-2 106/-3
vt 0.355846 0.753517
vt 0.350263 0.770985
vt 0.355778 0.830002
f 276/-1 106/-2 277/-3
vt 0.315025 0.753517
vt 0.321347 0.770985
vt 0.350263 0.770985
f 106/-1 107/-2 16/-3
vt 0.355846 0.753517
vt 0.315025 0.753517
vt 0.350263 0.770985
f 106/-1 16/-2 277/-3
vt 0.063125 0.817096
vt 0.035185 0.817096
vt 0.069273 0.830002
f 24/-1 111/-2 108/-3
vt 0.035185 0.817096
vt 0.028178 0.830002
vt 0.069273 0.830002
f 24/-1 276/-2 111/-3
vt 0.069321 0.753517
vt 0.063613 0.770985
vt 0.069273 0.830002
f 24/-1 109/-2 17/-3
vt 0.063613 0.770985
vt 0.063125 0.817096
vt 0.069273 0.830002
f 24/-1 108/-2 109/-3
vt 0.069321 0.753517
vt 0.028246 0.753517
vt 0.034697 0.770985
f 110/-1 277/-2 17/-3
vt 0.069321 0.753517
vt 0.034697 0.770985
vt 0.063613 0.770985
f 109/-1 110/-2 17/-3
vt 0.034697 0.770985
vt 0.028178 0.830002
vt 0.035185 0.817096
f 111/-1 276/-2 110/-3
vt 0.028246 0.753517
vt 0.028178 0.830002
vt 0.034697 0.770985
f 110/-1 276/-2 277/-3
vt 0.110580 0.753517
vt 0.104563 0.770985
vt 0.110580 0.830002
f 25/-1 112/-2 18/-3
vt 0.104563 0.770985
vt 0.104075 0.817096
vt 0.110580 0.830002
f 25/-1 115/-2 112/-3
vt 0.069321 0.753517
vt 0.104563 0.770985
vt 0.110580 0.753517
f 18/-1 112/-2 17/-3
vt 0.069321 0.753517
vt 0.075647 0.770985
vt 0.104563 0.770985
f 112/-1 113/-2 17/-3
vt 0.069321 0.753517
vt 0.069273 0.830002
vt 0.075647 0.770985
f 113/-1 24/-2 17/-3
vt 0.075647 0.770985
vt 0.069273 0.830002
vt 0.076135 0.817096
f 114/-1 24/-2 113/-3
vt 0.076135 0.817096
vt 0.110580 0.830002
vt 0.104075 0.817096
f 115/-1 25/-2 114/-3
vt 0.076135 0.817096
vt 0.069273 0.830002
vt 0.110580 0.830002
f 25/-1 24/-2 114/-3
vt 0.151839 0.753517
vt 0.145513 0.770985
vt 0.151887 0.830002
f 26/-1 116/-2 19/-3
vt 0.145513 0.770985
vt 0.145025 0.817096
vt 0.151887 0.830002
f 26/-1 119/-2 116/-3
vt 0.110580 0.753517
vt 0.116597 0.770985
vt 0.151839 0.753517
f 19/-1 117/-2 18/-3
vt 0.151839 0.753517
vt 0.116597 0.770985
vt 0.145513 0.770985
f 116/-1 117/-2 19/-3
vt 0.110580 0.753517
vt 0.110580 0.830002
vt 0.116597 0.770985
f 117/-1 25/-2 18/-3
vt 0.116597 0.770985
vt 0.110580 0.830002
vt 0.117085 0.817096
f 118/-1 25/-2 117/-3
vt 0.117085 0.817096
vt 0.110580 0.830002
vt 0.145025 0.817096
f 119/-1 25/-2 118/-3
vt 0.145025 0.817096
vt 0.110580 0.830002
vt 0.151887 0.830002
f 26/-1 25/-2 119/-3
vt 0.192914 0.753517
vt 0.186463 0.770985
vt 0.192982 0.830002
f 27/-1 120/-2 20/-3
vt 0.186463 0.770985
vt 0.185975 0.817096
vt 0.192982 0.830002
f 27/-1 123/-2 120/-3
vt 0.151839 0.753517
vt 0.157547 0.770985
vt 0.186463 0.770985
f 120/-1 121/-2 19/-3
vt 0.151839 0.753517
vt 0.186463 0.770985
vt 0.192914 0.753517
f 20/-1 120/-2 19/-3
vt 0.151839 0.753517
vt 0.151887 0.830002
vt 0.157547 0.770985
f 121/-1 26/-2 19/-3
vt 0.157547 0.770985
vt 0.151887 0.830002
vt 0.158035 0.817096
f 122/-1 26/-2 121/-3
vt 0.158035 0.817096
vt 0.151887 0.830002
vt 0.185975 0.817096
f 123/-1 26/-2 122/-3
vt 0.185975 0.817096
vt 0.151887 0.830002
vt 0.192982 0.830002
f 27/-1 26/-2 123/-3
vt 0.192914 0.753517
vt 0.198497 0.770985
vt 0.233735 0.753517
f 21/-1 124/-2 20/-3
vt 0.233735 0.753517
vt 0.198497 0.770985
vt 0.227413 0.770985
f 127/-1 124/-2 21/-3
vt 0.192914 0.753517
vt 0.192982 0.830002
vt 0.198497 0.770985
f 124/-1 27/-2 20/-3
vt 0.198497 0.770985
vt 0.192982 0.830002
vt 0.198985 0.817096
f 125/-1 27/-2 124/-3
vt 0.198985 0.817096
vt 0.192982 0.830002
vt 0.226925 0.817096
f 126/-1 27/-2 125/-3
vt 0.226925 0.817096
vt 0.192982 0.830002
vt 0.233782 0.830002
f 28/-1 27/-2 126/-3
vt 0.233735 0.753517
vt 0.227413 0.770985
vt 0.233782 0.830002
f 28/-1 127/-2 21/-3
vt 0.227413 0.770985
vt 0.226925 0.817096
vt 0.233782 0.830002
f 28/-1 126/-2 127/-3
vt 0.233735 0.753517
vt 0.239447 0.770985
vt 0.268363 0.770985
f 131/-1 128/-2 21/-3
vt 0.274380 0.753517
vt 0.233735 0.753517
vt 0.268363 0.770985
f 131/-1 21/-2 15/-3
vt 0.233735 0.753517
vt 0.233782 0.830002
vt 0.239447 0.770985
f 128/-1 28/-2 21/-3
vt 0.239447 0.770985
vt 0.233782 0.830002
vt 0.239935 0.817096
f 129/-1 28/-2 128/-3
vt 0.267875 0.817096
vt 0.239935 0.817096
vt 0.233782 0.830002
f 28/-1 129/-2 130/-3
vt 0.267875 0.817096
vt 0.233782 0.830002
vt 0.274380 0.830002
f 22/-1 28/-2 130/-3
vt 0.274380 0.753517
vt 0.268363 0.770985
vt 0.274380 0.830002
f 22/-1 131/-2 15/-3
vt 0.268363 0.770985
vt 0.267875 0.817096
vt 0.274380 0.830002
f 22/-1 130/-2 131/-3
vt 0.274380 0.830002
vt 0.274380 0.899193
vt 0.282807 0.846583
f 135/-1 29/-2 22/-3
vt 0.282807 0.846583
vt 0.274380 0.899193
vt 0.285600 0.879118
f 132/-1 29/-2 135/-3
vt 0.304110 0.879118
vt 0.285600 0.879118
vt 0.314442 0.899193
f 30/-1 132/-2 133/-3
vt 0.285600 0.879118
vt 0.274380 0.899193
vt 0.314442 0.899193
f 30/-1 29/-2 132/-3
vt 0.314978 0.830002
vt 0.306903 0.846583
vt 0.314442 0.899193
f 30/-1 134/-2 23/-3
vt 0.306903 0.846583
vt 0.304110 0.879118
vt 0.314442 0.899193
f 30/-1 133/-2 134/-3
vt 0.314978 0.830002
vt 0.274380 0.830002
vt 0.282807 0.846583
f 135/-1 22/-2 23/-3
vt 0.314978 0.830002
vt 0.282807 0.846583
vt 0.306903 0.846583
f 134/-1 135/-2 23/-3
vt 0.314978 0.830002
vt 0.314442 0.899193
vt 0.323757 0.846583
f 139/-1 30/-2 23/-3
vt 0.323757 0.846583
vt 0.314442 0.899193
vt 0.326550 0.879118
f 136/-1 30/-2 139/-3
vt 0.345060 0.879118
vt 0.326550 0.879118
vt 0.355002 0.899193
f 275/-1 136/-2 137/-3
vt 0.326550 0.879118
vt 0.314442 0.899193
vt 0.355002 0.899193
f 275/-1 30/-2 136/-3
vt 0.355778 0.830002
vt 0.347853 0.846583
vt 0.355002 0.899193
f 275/-1 138/-2 276/-3
vt 0.347853 0.846583
vt 0.345060 0.879118
vt 0.355002 0.899193
f 275/-1 137/-2 138/-3
vt 0.355778 0.830002
vt 0.314978 0.830002
vt 0.347853 0.846583
f 138/-1 23/-2 276/-3
vt 0.314978 0.830002
vt 0.323757 0.846583
vt 0.347853 0.846583
f 138/-1 139/-2 23/-3
vt 0.058410 0.879118
vt 0.039900 0.879118
vt 0.068711 0.899193
f 31/-1 143/-2 140/-3
vt 0.039900 0.879118
vt 0.027402 0.899193
vt 0.068711 0.899193
f 31/-1 275/-2 143/-3
vt 0.069273 0.830002
vt 0.061203 0.846583
vt 0.068711 0.899193
f 31/-1 141/-2 24/-3
vt 0.061203 0.846583
vt 0.058410 0.879118
vt 0.068711 0.899193
f 31/-1 140/-2 141/-3
vt 0.069273 0.830002
vt 0.028178 0.830002
vt 0.037107 0.846583
f 142/-1 276/-2 24/-3
vt 0.069273 0.830002
vt 0.037107 0.846583
vt 0.061203 0.846583
f 141/-1 142/-2 24/-3
vt 0.028178 0.830002
vt 0.027402 0.899193
vt 0.037107 0.846583
f 142/-1 275/-2 276/-3
vt 0.037107 0.846583
vt 0.027402 0.899193
vt 0.039900 0.879118
f 143/-1 275/-2 142/-3
vt 0.110580 0.830002
vt 0.102153 0.846583
vt 0.110580 0.899193
f 32/-1 144/-2 25/-3
vt 0.102153 0.846583
vt 0.099360 0.879118
vt 0.110580 0.899193
f 32/-1 147/-2 144/-3
vt 0.069273 0.830002
vt 0.102153 0.846583
vt 0.110580 0.830002
f 25/-1 144/-2 24/-3
vt 0.069273 0.830002
vt 0.078057 0.846583
vt 0.102153 0.846583
f 144/-1 145/-2 24/-3
vt 0.069273 0.830002
vt 0.068711 0.899193
vt 0.078057 0.846583
f 145/-1 31/-2 24/-3
vt 0.078057 0.846583
vt 0.068711 0.899193
vt 0.080850 0.879118
f 146/-1 31/-2 145/-3
vt 0.080850 0.879118
vt 0.110580 0.899193
vt 0.099360 0.879118
f 147/-1 32/-2 146/-3
vt 0.080850 0.879118
vt 0.068711 0.899193
vt 0.110580 0.899193
f 32/-1 31/-2 146/-3
vt 0.151887 0.830002
vt 0.143103 0.846583
vt 0.152449 0.899193
f 33/-1 148/-2 26/-3
vt 0.143103 0.846583
vt 0.140310 0.879118
vt 0.152449 0.899193
f 33/-1 151/-2 148/-3
vt 0.110580 0.830002
vt 0.119007 0.846583
vt 0.151887 0.830002
f 26/-1 149/-2 25/-3
vt 0.151887 0.830002
vt 0.119007 0.846583
vt 0.143103 0.846583
f 148/-1 149/-2 26/-3
vt 0.110580 0.830002
vt 0.110580 0.899193
vt 0.119007 0.846583
f 149/-1 32/-2 25/-3
vt 0.119007 0.846583
vt 0.110580 0.899193
vt 0.121800 0.879118
f 150/-1 32/-2 149/-3
vt 0.121800 0.879118
vt 0.110580 0.899193
vt 0.140310 0.879118
f 151/-1 32/-2 150/-3
vt 0.140310 0.879118
vt 0.110580 0.899193
vt 0.152449 0.899193
f 33/-1 32/-2 151/-3
vt 0.192982 0.830002
vt 0.184053 0.846583
vt 0.193758 0.899193
f 34/-1 152/-2 27/-3
vt 0.184053 0.846583
vt 0.181260 0.879118
vt 0.193758 0.899193
f 34/-1 155/-2 152/-3
vt 0.151887 0.830002
vt 0.159957 0.846583
vt 0.184053 0.846583
f 152/-1 153/-2 26/-3
vt 0.151887 0.830002
vt 0.184053 0.846583
vt 0.192982 0.830002
f 27/-1 152/-2 26/-3
vt 0.151887 0.830002
vt 0.152449 0.899193
vt 0.159957 0.846583
f 153/-1 33/-2 26/-3
vt 0.159957 0.846583
vt 0.152449 0.899193
vt 0.162750 0.879118
f 154/-1 33/-2 153/-3
vt 0.162750 0.879118
vt 0.152449 0.899193
vt 0.181260 0.879118
f 155/-1 33/-2 154/-3
vt 0.181260 0.879118
vt 0.152449 0.899193
vt 0.193758 0.899193
f 34/-1 33/-2 155/-3
vt 0.192982 0.830002
vt 0.200907 0.846583
vt 0.233782 0.830002
f 28/-1 156/-2 27/-3
vt 0.233782 0.830002
vt 0.200907 0.846583
vt 0.225003 0.846583
f 159/-1 156/-2 28/-3
vt 0.192982 0.830002
vt 0.193758 0.899193
vt 0.200907 0.846583
f 156/-1 34/-2 27/-3
vt 0.200907 0.846583
vt 0.193758 0.899193
vt 0.203700 0.879118
f 157/-1 34/-2 156/-3
vt 0.203700 0.879118
vt 0.193758 0.899193
vt 0.222210 0.879118
f 158/-1 34/-2 157/-3
vt 0.222210 0.879118
vt 0.193758 0.899193
vt 0.234318 0.899193
f 35/-1 34/-2 158/-3
vt 0.233782 0.830002
vt 0.225003 0.846583
vt 0.234318 0.899193
f 35/-1 159/-2 28/-3
vt 0.225003 0.846583
vt 0.222210 0.879118
vt 0.234318 0.899193
f 35/-1 158/-2 159/-3
vt 0.233782 0.830002
vt 0.241857 0.846583
vt 0.265953 0.846583
f 163/-1 160/-2 28/-3
vt 0.274380 0.830002
vt 0.233782 0.830002
vt 0.265953 0.846583
f 163/-1 28/-2 22/-3
vt 0.233782 0.830002
vt 0.234318 0.899193
vt 0.241857 0.846583
f 160/-1 35/-2 28/-3
vt 0.241857 0.846583
vt 0.234318 0.899193
vt 0.244650 0.879118
f 161/-1 35/-2 160/-3
vt 0.263160 0.879118
vt 0.244650 0.879118
vt 0.234318 0.899193
f 35/-1 161/-2 162/-3
vt 0.263160 0.879118
vt 0.234318 0.899193
vt 0.274380 0.899193
f 29/-1 35/-2 162/-3
vt 0.274380 0.830002
vt 0.265953 0.846583
vt 0.274380 0.899193
f 29/-1 163/-2 22/-3
vt 0.265953 0.846583
vt 0.263160 0.879118
vt 0.274380 0.899193
f 29/-1 162/-2 163/-3
vt 0.314442 0.899193
vt 0.274380 0.899193
vt 0.314442 0.921000
f 164/-1 29/-2 30/-3
vt 0.274380 0.899193
vt 0.274380 0.921000
vt 0.314442 0.921000
f 164/-1 165/-2 29/-3
vt 0.355002 0.899193
vt 0.314442 0.899193
vt 0.355002 0.921000
f 274/-1 30/-2 275/-3
vt 0.314442 0.899193
vt 0.314442 0.921000
vt 0.355002 0.921000
f 274/-1 164/-2 30/-3
vt 0.068711 0.899193
vt 0.027402 0.921000
vt 0.068711 0.921000
f 166/-1 274/-2 31/-3
vt 0.068711 0.899193
vt 0.027402 0.899193
vt 0.027402 0.921000
f 274/-1 275/-2 31/-3
vt 0.068711 0.899193
vt 0.110580 0.921000
vt 0.110580 0.899193
f 32/-1 167/-2 31/-3
vt 0.068711 0.899193
vt 0.068711 0.921000
vt 0.110580 0.921000
f 167/-1 166/-2 31/-3
vt 0.152449 0.899193
vt 0.110580 0.921000
vt 0.152449 0.921000
f 168/-1 167/-2 33/-3
vt 0.110580 0.899193
vt 0.110580 0.921000
vt 0.152449 0.899193
f 33/-1 167/-2 32/-3
vt 0.193758 0.899193
vt 0.152449 0.921000
vt 0.193758 0.921000
f 169/-1 168/-2 34/-3
vt 0.152449 0.899193
vt 0.152449 0.921000
vt 0.193758 0.899193
f 34/-1 168/-2 33/-3
vt 0.193758 0.899193
vt 0.193758 0.921000
vt 0.234318 0.921000
f 170/-1 169/-2 34/-3
vt 0.193758 0.899193
vt 0.234318 0.921000
vt 0.234318 0.899193
f 35/-1 170/-2 34/-3
vt 0.274380 0.899193
vt 0.234318 0.921000
vt 0.274380 0.921000
f 165/-1 170/-2 29/-3
vt 0.274380 0.899193
vt 0.234318 0.899193
vt 0.234318 0.921000
f 170/-1 35/-2 29/-3
vt 0.765899 0.817288
vt 0.770794 0.817288
vt 0.753407 0.863911
f 196/-1 171/-2 195/-3
vt 0.770794 0.817288
vt 0.757425 0.867184
vt 0.753407 0.863911
f 196/-1 172/-2 171/-3
vt 0.753407 0.863911
vt 0.757425 0.867184
vt 0.720898 0.903711
f 173/-1 172/-2 196/-3
vt 0.753407 0.863911
vt 0.720898 0.903711
vt 0.719277 0.898042
f 197/-1 173/-2 196/-3
vt 0.719277 0.898042
vt 0.720898 0.903711
vt 0.673002 0.915081
f 174/-1 173/-2 197/-3
vt 0.719277 0.898042
vt 0.673002 0.915081
vt 0.672654 0.910534
f 198/-1 174/-2 197/-3
vt 0.626031 0.898042
vt 0.672654 0.910534
vt 0.623106 0.901711
f 175/-1 198/-2 199/-3
vt 0.623106 0.901711
vt 0.672654 0.910534
vt 0.673002 0.915081
f 174/-1 198/-2 175/-3
vt 0.591901 0.863911
vt 0.626031 0.898042
vt 0.588580 0.867184
f 176/-1 199/-2 200/-3
vt 0.588580 0.867184
vt 0.626031 0.898042
vt 0.623106 0.901711
f 175/-1 199/-2 176/-3
vt 0.579408 0.817288
vt 0.591901 0.863911
vt 0.575210 0.817288
f 177/-1 200/-2 201/-3
vt 0.575210 0.817288
vt 0.591901 0.863911
vt 0.588580 0.867184
f 176/-1 200/-2 177/-3
vt 0.591901 0.770666
vt 0.579408 0.817288
vt 0.575210 0.817288
f 177/-1 201/-2 202/-3
vt 0.588580 0.767392
vt 0.591901 0.770666
vt 0.575210 0.817288
f 177/-1 202/-2 178/-3
vt 0.626031 0.736535
vt 0.591901 0.770666
vt 0.588580 0.767392
f 178/-1 202/-2 203/-3
vt 0.623106 0.732866
vt 0.626031 0.736535
vt 0.588580 0.767392
f 178/-1 203/-2 179/-3
vt 0.672654 0.724043
vt 0.626031 0.736535
vt 0.623106 0.732866
f 179/-1 203/-2 204/-3
vt 0.673002 0.719496
vt 0.672654 0.724043
vt 0.623106 0.732866
f 179/-1 204/-2 180/-3
vt 0.673002 0.719496
vt 0.720277 0.735535
vt 0.672654 0.724043
f 204/-1 205/-2 180/-3
vt 0.673002 0.719496
vt 0.721898 0.731866
vt 0.720277 0.735535
f 205/-1 181/-2 180/-3
vt 0.721898 0.731866
vt 0.754407 0.770666
vt 0.720277 0.735535
f 205/-1 206/-2 181/-3
vt 0.721898 0.731866
vt 0.758425 0.767392
vt 0.754407 0.770666
f 206/-1 182/-2 181/-3
vt 0.758425 0.767392
vt 0.765899 0.817288
vt 0.754407 0.770666
f 206/-1 195/-2 182/-3
vt 0.758425 0.767392
vt 0.770794 0.817288
vt 0.765899 0.817288
f 195/-1 171/-2 182/-3
vt 0.754407 0.770666
vt 0.765899 0.817288
vt 0.770794 0.817288
f 183/-1 207/-2 208/-3
vt 0.758425 0.767392
vt 0.754407 0.770666
vt 0.770794 0.817288
f 183/-1 208/-2 194/-3
vt 0.721898 0.731866
vt 0.720277 0.735535
vt 0.754407 0.770666
f 208/-1 209/-2 193/-3
vt 0.721898 0.731866
vt 0.754407 0.770666
vt 0.758425 0.767392
f 194/-1 208/-2 193/-3
vt 0.673002 0.719496
vt 0.672654 0.724043
vt 0.720277 0.735535
f 209/-1 210/-2 192/-3
vt 0.673002 0.719496
vt 0.720277 0.735535
vt 0.721898 0.731866
f 193/-1 209/-2 192/-3
vt 0.673002 0.719496
vt 0.623106 0.732866
vt 0.672654 0.724043
f 210/-1 191/-2 192/-3
vt 0.672654 0.724043
vt 0.623106 0.732866
vt 0.626031 0.736535
f 211/-1 191/-2 210/-3
vt 0.623106 0.732866
vt 0.588580 0.767392
vt 0.626031 0.736535
f 211/-1 190/-2 191/-3
vt 0.626031 0.736535
vt 0.588580 0.767392
vt 0.591901 0.770666
f 212/-1 190/-2 211/-3
vt 0.588580 0.767392
vt 0.575210 0.817288
vt 0.591901 0.770666
f 212/-1 189/-2 190/-3
vt 0.591901 0.770666
vt 0.575210 0.817288
vt 0.579408 0.817288
f 213/-1 189/-2 212/-3
vt 0.575210 0.817288
vt 0.588580 0.867184
vt 0.579408 0.817288
f 213/-1 188/-2 189/-3
vt 0.579408 0.817288
vt 0.588580 0.867184
vt 0.591901 0.863911
f 214/-1 188/-2 213/-3
vt 0.591901 0.863911
vt 0.588580 0.867184
vt 0.626031 0.898042
f 215/-1 188/-2 214/-3
vt 0.588580 0.867184
vt 0.623106 0.901711
vt 0.626031 0.898042
f 215/-1 187/-2 188/-3
vt 0.626031 0.898042
vt 0.623106 0.901711
vt 0.672654 0.910534
f 216/-1 187/-2 215/-3
vt 0.623106 0.901711
vt 0.673002 0.915081
vt 0.672654 0.910534
f 216/-1 186/-2 187/-3
vt 0.719277 0.898042
vt 0.672654 0.910534
vt 0.673002 0.915081
f 186/-1 216/-2 217/-3
vt 0.719277 0.898042
vt 0.673002 0.915081
vt 0.720898 0.903711
f 185/-1 186/-2 217/-3
vt 0.753407 0.863911
vt 0.719277 0.898042
vt 0.720898 0.903711
f 185/-1 217/-2 218/-3
vt 0.753407 0.863911
vt 0.720898 0.903711
vt 0.757425 0.867184
f 184/-1 185/-2 218/-3
vt 0.765899 0.817288
vt 0.753407 0.863911
vt 0.757425 0.867184
f 184/-1 218/-2 207/-3
vt 0.770794 0.817288
vt 0.765899 0.817288
vt 0.757425 0.867184
f 184/-1 207/-2 183/-3
vt 0.775722 0.817827
vt 0.762550 0.868717
vt 0.757425 0.867184
f 172/-1 221/-2 220/-3
vt 0.775722 0.817827
vt 0.757425 0.867184
vt 0.770794 0.817288
f 171/-1 172/-2 220/-3
vt 0.770794 0.817288
vt 0.757425 0.867184
vt 0.762550 0.868717
f 221/-1 184/-2 183/-3
vt 0.770794 0.817288
vt 0.762550 0.868717
vt 0.775722 0.817827
f 220/-1 221/-2 183/-3
vt 0.762550 0.868717
vt 0.720898 0.903711
vt 0.757425 0.867184
f 172/-1 173/-2 221/-3
vt 0.762550 0.868717
vt 0.723832 0.907435
vt 0.720898 0.903711
f 173/-1 222/-2 221/-3
vt 0.757425 0.867184
vt 0.723832 0.907435
vt 0.762550 0.868717
f 221/-1 222/-2 184/-3
vt 0.757425 0.867184
vt 0.720898 0.903711
vt 0.723832 0.907435
f 222/-1 185/-2 184/-3
vt 0.723832 0.907435
vt 0.673002 0.915081
vt 0.720898 0.903711
f 173/-1 174/-2 222/-3
vt 0.723832 0.907435
vt 0.672942 0.921607
vt 0.673002 0.915081
f 174/-1 223/-2 222/-3
vt 0.720898 0.903711
vt 0.673002 0.915081
vt 0.672942 0.921607
f 223/-1 186/-2 185/-3
vt 0.720898 0.903711
vt 0.672942 0.921607
vt 0.723832 0.907435
f 222/-1 223/-2 185/-3
vt 0.620053 0.907435
vt 0.623106 0.901711
vt 0.673002 0.915081
f 174/-1 175/-2 224/-3
vt 0.620053 0.907435
vt 0.673002 0.915081
vt 0.672942 0.921607
f 223/-1 174/-2 224/-3
vt 0.623106 0.901711
vt 0.672942 0.921607
vt 0.673002 0.915081
f 186/-1 223/-2 187/-3
vt 0.623106 0.901711
vt 0.620053 0.907435
vt 0.672942 0.921607
f 223/-1 224/-2 187/-3
vt 0.588580 0.867184
vt 0.623106 0.901711
vt 0.620053 0.907435
f 224/-1 175/-2 176/-3
vt 0.583334 0.869717
vt 0.588580 0.867184
vt 0.620053 0.907435
f 224/-1 176/-2 225/-3
vt 0.583334 0.869717
vt 0.620053 0.907435
vt 0.623106 0.901711
f 187/-1 224/-2 225/-3
vt 0.588580 0.867184
vt 0.583334 0.869717
vt 0.623106 0.901711
f 187/-1 225/-2 188/-3
vt 0.569163 0.817827
vt 0.575210 0.817288
vt 0.583334 0.869717
f 225/-1 177/-2 226/-3
vt 0.575210 0.817288
vt 0.588580 0.867184
vt 0.583334 0.869717
f 225/-1 176/-2 177/-3
vt 0.575210 0.817288
vt 0.569163 0.817827
vt 0.588580 0.867184
f 188/-1 226/-2 189/-3
vt 0.569163 0.817827
vt 0.583334 0.869717
vt 0.588580 0.867184
f 188/-1 225/-2 226/-3
vt 0.584334 0.764938
vt 0.588580 0.767392
vt 0.575210 0.817288
f 177/-1 178/-2 227/-3
vt 0.584334 0.764938
vt 0.575210 0.817288
vt 0.569163 0.817827
f 226/-1 177/-2 227/-3
vt 0.588580 0.767392
vt 0.569163 0.817827
vt 0.575210 0.817288
f 189/-1 226/-2 190/-3
vt 0.588580 0.767392
vt 0.584334 0.764938
vt 0.569163 0.817827
f 226/-1 227/-2 190/-3
vt 0.621053 0.727220
vt 0.623106 0.732866
vt 0.588580 0.767392
f 178/-1 179/-2 228/-3
vt 0.621053 0.727220
vt 0.588580 0.767392
vt 0.584334 0.764938
f 227/-1 178/-2 228/-3
vt 0.623106 0.732866
vt 0.584334 0.764938
vt 0.588580 0.767392
f 190/-1 227/-2 191/-3
vt 0.623106 0.732866
vt 0.621053 0.727220
vt 0.584334 0.764938
f 227/-1 228/-2 191/-3
vt 0.672942 0.712048
vt 0.673002 0.719496
vt 0.623106 0.732866
f 179/-1 180/-2 229/-3
vt 0.672942 0.712048
vt 0.623106 0.732866
vt 0.621053 0.727220
f 228/-1 179/-2 229/-3
vt 0.673002 0.719496
vt 0.621053 0.727220
vt 0.623106 0.732866
f 191/-1 228/-2 192/-3
vt 0.673002 0.719496
vt 0.672942 0.712048
vt 0.621053 0.727220
f 228/-1 229/-2 192/-3
vt 0.672942 0.712048
vt 0.721898 0.731866
vt 0.673002 0.719496
f 180/-1 181/-2 229/-3
vt 0.672942 0.712048
vt 0.724832 0.728220
vt 0.721898 0.731866
f 181/-1 230/-2 229/-3
vt 0.673002 0.719496
vt 0.721898 0.731866
vt 0.724832 0.728220
f 230/-1 193/-2 192/-3
vt 0.673002 0.719496
vt 0.724832 0.728220
vt 0.672942 0.712048
f 229/-1 230/-2 192/-3
vt 0.724832 0.728220
vt 0.761550 0.764938
vt 0.721898 0.731866
f 181/-1 231/-2 230/-3
vt 0.721898 0.731866
vt 0.761550 0.764938
vt 0.758425 0.767392
f 182/-1 231/-2 181/-3
vt 0.724832 0.728220
vt 0.758425 0.767392
vt 0.761550 0.764938
f 231/-1 194/-2 230/-3
vt 0.721898 0.731866
vt 0.758425 0.767392
vt 0.724832 0.728220
f 230/-1 194/-2 193/-3
vt 0.761550 0.764938
vt 0.775722 0.817827
vt 0.758425 0.767392
f 182/-1 220/-2 231/-3
vt 0.758425 0.767392
vt 0.775722 0.817827
vt 0.770794 0.817288
f 171/-1 220/-2 182/-3
vt 0.761550 0.764938
vt 0.770794 0.817288
vt 0.775722 0.817827
f 220/-1 183/-2 231/-3
vt 0.758425 0.767392
vt 0.770794 0.817288
vt 0.761550 0.764938
f 231/-1 183/-2 194/-3
vt 0.719794 0.738880
vt 0.750546 0.771993
vt 0.754407 0.770666
f 208/-1 232/-2 233/-3
vt 0.720277 0.735535
vt 0.719794 0.738880
vt 0.754407 0.770666
f 208/-1 233/-2 209/-3
vt 0.719794 0.738880
vt 0.720277 0.735535
vt 0.750546 0.771993
f 232/-1 205/-2 233/-3
vt 0.720277 0.735535
vt 0.754407 0.770666
vt 0.750546 0.771993
f 232/-1 206/-2 205/-3
vt 0.672654 0.724043
vt 0.719794 0.738880
vt 0.720277 0.735535
f 209/-1 233/-2 210/-3
vt 0.672654 0.724043
vt 0.672787 0.727492
vt 0.719794 0.738880
f 233/-1 234/-2 210/-3
vt 0.672787 0.727492
vt 0.672654 0.724043
vt 0.720277 0.735535
f 205/-1 204/-2 234/-3
vt 0.672787 0.727492
vt 0.720277 0.735535
vt 0.719794 0.738880
f 233/-1 205/-2 234/-3
vt 0.672654 0.724043
vt 0.626031 0.736535
vt 0.628780 0.738880
f 235/-1 211/-2 210/-3
vt 0.672654 0.724043
vt 0.628780 0.738880
vt 0.672787 0.727492
f 234/-1 235/-2 210/-3
vt 0.672787 0.727492
vt 0.626031 0.736535
vt 0.672654 0.724043
f 204/-1 203/-2 234/-3
vt 0.672787 0.727492
vt 0.628780 0.738880
vt 0.626031 0.736535
f 203/-1 235/-2 234/-3
vt 0.626031 0.736535
vt 0.594028 0.772993
vt 0.628780 0.738880
f 235/-1 236/-2 211/-3
vt 0.626031 0.736535
vt 0.591901 0.770666
vt 0.594028 0.772993
f 236/-1 212/-2 211/-3
vt 0.628780 0.738880
vt 0.594028 0.772993
vt 0.591901 0.770666
f 202/-1 236/-2 235/-3
vt 0.628780 0.738880
vt 0.591901 0.770666
vt 0.626031 0.736535
f 203/-1 202/-2 235/-3
vt 0.591901 0.770666
vt 0.579408 0.817288
vt 0.584773 0.816494
f 237/-1 213/-2 212/-3
vt 0.591901 0.770666
vt 0.584773 0.816494
vt 0.594028 0.772993
f 236/-1 237/-2 212/-3
vt 0.594028 0.772993
vt 0.579408 0.817288
vt 0.591901 0.770666
f 202/-1 201/-2 236/-3
vt 0.594028 0.772993
vt 0.584773 0.816494
vt 0.579408 0.817288
f 201/-1 237/-2 236/-3
vt 0.584773 0.816494
vt 0.591901 0.863911
vt 0.596028 0.860996
f 238/-1 214/-2 237/-3
vt 0.579408 0.817288
vt 0.591901 0.863911
vt 0.584773 0.816494
f 237/-1 214/-2 213/-3
vt 0.584773 0.816494
vt 0.596028 0.860996
vt 0.579408 0.817288
f 201/-1 238/-2 237/-3
vt 0.579408 0.817288
vt 0.596028 0.860996
vt 0.591901 0.863911
f 200/-1 238/-2 201/-3
vt 0.596028 0.860996
vt 0.626031 0.898042
vt 0.628780 0.892109
f 239/-1 215/-2 238/-3
vt 0.591901 0.863911
vt 0.626031 0.898042
vt 0.596028 0.860996
f 238/-1 215/-2 214/-3
vt 0.596028 0.860996
vt 0.628780 0.892109
vt 0.591901 0.863911
f 200/-1 239/-2 238/-3
vt 0.591901 0.863911
vt 0.628780 0.892109
vt 0.626031 0.898042
f 199/-1 239/-2 200/-3
vt 0.626031 0.898042
vt 0.672654 0.910534
vt 0.672787 0.903497
f 240/-1 216/-2 215/-3
vt 0.626031 0.898042
vt 0.672787 0.903497
vt 0.628780 0.892109
f 239/-1 240/-2 215/-3
vt 0.628780 0.892109
vt 0.672654 0.910534
vt 0.626031 0.898042
f 199/-1 198/-2 239/-3
vt 0.628780 0.892109
vt 0.672787 0.903497
vt 0.672654 0.910534
f 198/-1 240/-2 239/-3
vt 0.719277 0.898042
vt 0.672787 0.903497
vt 0.672654 0.910534
f 216/-1 240/-2 217/-3
vt 0.719277 0.898042
vt 0.716794 0.892109
vt 0.672787 0.903497
f 240/-1 241/-2 217/-3
vt 0.716794 0.892109
vt 0.719277 0.898042
vt 0.672654 0.910534
f 198/-1 197/-2 241/-3
vt 0.716794 0.892109
vt 0.672654 0.910534
vt 0.672787 0.903497
f 240/-1 198/-2 241/-3
vt 0.753407 0.863911
vt 0.716794 0.892109
vt 0.719277 0.898042
f 217/-1 241/-2 218/-3
vt 0.753407 0.863911
vt 0.749546 0.859996
vt 0.716794 0.892109
f 241/-1 242/-2 218/-3
vt 0.749546 0.859996
vt 0.753407 0.863911
vt 0.719277 0.898042
f 197/-1 196/-2 242/-3
vt 0.749546 0.859996
vt 0.719277 0.898042
vt 0.716794 0.892109
f 241/-1 197/-2 242/-3
vt 0.765899 0.817288
vt 0.749546 0.859996
vt 0.753407 0.863911
f 218/-1 242/-2 207/-3
vt 0.765899 0.817288
vt 0.760801 0.816494
vt 0.749546 0.859996
f 242/-1 243/-2 207/-3
vt 0.760801 0.816494
vt 0.765899 0.817288
vt 0.753407 0.863911
f 196/-1 195/-2 243/-3
vt 0.760801 0.816494
vt 0.753407 0.863911
vt 0.749546 0.859996
f 242/-1 196/-2 243/-3
vt 0.754407 0.770666
vt 0.750546 0.771993
vt 0.765899 0.817288
f 207/-1 232/-2 208/-3
vt 0.750546 0.771993
vt 0.760801 0.816494
vt 0.765899 0.817288
f 207/-1 243/-2 232/-3
vt 0.754407 0.770666
vt 0.765899 0.817288
vt 0.760801 0.816494
f 243/-1 195/-2 206/-3
vt 0.750546 0.771993
vt 0.754407 0.770666
vt 0.760801 0.816494
f 243/-1 206/-2 232/-3
vt 0.805579 0.660578
vt 0.888368 0.660578
vt 0.895078 0.716573
f 246/-1 245/-2 244/-3
vt 0.805579 0.660578
vt 0.895078 0.716573
vt 0.805579 0.712573
f 247/-1 246/-2 244/-3
vt 0.805579 0.660578
vt 0.805579 0.712573
vt 0.895078 0.716573
f 250/-1 251/-2 248/-3
vt 0.805579 0.660578
vt 0.895078 0.716573
vt 0.888368 0.660578
f 249/-1 250/-2 248/-3
vt 0.888368 0.660578
vt 0.912730 0.712202
vt 0.940033 0.675713
f 253/-1 254/-2 249/-3
vt 0.888368 0.660578
vt 0.895078 0.716573
vt 0.912730 0.712202
f 254/-1 250/-2 249/-3
vt 0.888368 0.660578
vt 0.940033 0.675713
vt 0.912730 0.712202
f 255/-1 252/-2 245/-3
vt 0.888368 0.660578
vt 0.912730 0.712202
vt 0.895078 0.716573
f 246/-1 255/-2 245/-3
vt 0.931033 0.595978
vt 0.964275 0.611922
vt 0.940033 0.675713
f 252/-1 256/-2 257/-3
vt 0.931033 0.595978
vt 0.940033 0.675713
vt 0.888368 0.660578
f 245/-1 252/-2 257/-3
vt 0.931033 0.595978
vt 0.888368 0.660578
vt 0.940033 0.675713
f 253/-1 249/-2 258/-3
vt 0.931033 0.595978
vt 0.940033 0.675713
vt 0.964275 0.611922
f 259/-1 253/-2 258/-3
vt 0.941154 0.565245
vt 0.962275 0.562245
vt 0.964275 0.611922
f 256/-1 260/-2 261/-3
vt 0.941154 0.565245
vt 0.964275 0.611922
vt 0.931033 0.595978
f 257/-1 256/-2 261/-3
vt 0.941154 0.565245
vt 0.931033 0.595978
vt 0.964275 0.611922
f 259/-1 258/-2 262/-3
vt 0.941154 0.565245
vt 0.964275 0.611922
vt 0.962275 0.562245
f 263/-1 259/-2 262/-3
vt 0.776059 0.626218
vt 0.888368 0.660578
vt 0.879560 0.621746
f 265/-1 249/-2 264/-3
vt 0.776059 0.626218
vt 0.805579 0.660578
vt 0.888368 0.660578
f 249/-1 248/-2 264/-3
vt 0.805579 0.660578
vt 0.776059 0.626218
vt 0.879560 0.621746
f 265/-1 264/-2 244/-3
vt 0.805579 0.660578
vt 0.879560 0.621746
vt 0.888368 0.660578
f 245/-1 265/-2 244/-3
vt 0.940033 0.675713
vt 0.912730 0.712202
vt 0.930250 0.721618
f 267/-1 254/-2 253/-3
vt 0.954553 0.686129
vt 0.940033 0.675713
vt 0.930250 0.721618
f 267/-1 253/-2 266/-3
vt 0.940033 0.675713
vt 0.954553 0.686129
vt 0.912730 0.712202
f 255/-1 266/-2 252/-3
vt 0.954553 0.686129
vt 0.930250 0.721618
vt 0.912730 0.712202
f 255/-1 267/-2 266/-3
vt 0.776059 0.739933
vt 0.895078 0.716573
vt 0.805579 0.712573
f 251/-1 250/-2 268/-3
vt 0.776059 0.739933
vt 0.906790 0.739933
vt 0.895078 0.716573
f 250/-1 269/-2 268/-3
vt 0.805579 0.712573
vt 0.906790 0.739933
vt 0.776059 0.739933
f 268/-1 269/-2 247/-3
vt 0.805579 0.712573
vt 0.895078 0.716573
vt 0.906790 0.739933
f 269/-1 246/-2 247/-3
vt 0.805579 0.660578
vt 0.776059 0.739933
vt 0.805579 0.712573
f 251/-1 268/-2 248/-3
vt 0.776059 0.626218
vt 0.776059 0.739933
vt 0.805579 0.660578
f 248/-1 268/-2 264/-3
vt 0.776059 0.626218
vt 0.805579 0.712573
vt 0.776059 0.739933
f 268/-1 247/-2 264/-3
vt 0.805579 0.660578
vt 0.805579 0.712573
vt 0.776059 0.626218
f 264/-1 247/-2 244/-3
vt 0.941154 0.565245
vt 0.962275 0.562245
vt 0.971891 0.549413
f 270/-1 263/-2 262/-3
vt 0.917538 0.531413
vt 0.941154 0.565245
vt 0.971891 0.549413
f 270/-1 262/-2 271/-3
vt 0.941154 0.565245
vt 0.917538 0.531413
vt 0.962275 0.562245
f 260/-1 271/-2 261/-3
vt 0.917538 0.531413
vt 0.971891 0.549413
vt 0.962275 0.562245
f 260/-1 270/-2 271/-3
vt 0.930250 0.721618
vt 0.895078 0.716573
vt 0.906790 0.739933
f 269/-1 250/-2 267/-3
vt 0.930250 0.721618
vt 0.912730 0.712202
vt 0.895078 0.716573
f 250/-1 254/-2 267/-3
vt 0.912730 0.712202
vt 0.930250 0.721618
vt 0.906790 0.739933
f 269/-1 267/-2 255/-3
vt 0.912730 0.712202
vt 0.906790 0.739933
vt 0.895078 0.716573
f 246/-1 269/-2 255/-3
vt 0.931033 0.595978
vt 0.879560 0.621746
vt 0.888368 0.660578
f 249/-1 265/-2 258/-3
vt 0.910417 0.589034
vt 0.879560 0.621746
vt 0.931033 0.595978
f 258/-1 265/-2 272/-3
vt 0.931033 0.595978
vt 0.888368 0.660578
vt 0.879560 0.621746
f 265/-1 245/-2 257/-3
vt 0.931033 0.595978
vt 0.879560 0.621746
vt 0.910417 0.589034
f 272/-1 265/-2 257/-3
vt 0.977795 0.629338
vt 0.964275 0.611922
vt 0.954553 0.686129
f 266/-1 259/-2 273/-3
vt 0.964275 0.611922
vt 0.940033 0.675713
vt 0.954553 0.686129
f 266/-1 253/-2 259/-3
vt 0.964275 0.611922
vt 0.954553 0.686129
vt 0.940033 0.675713
f 252/-1 266/-2 256/-3
vt 0.964275 0.611922
vt 0.977795 0.629338
vt 0.954553 0.686129
f 266/-1 273/-2 256/-3
vt 0.941154 0.565245
vt 0.910417 0.589034
vt 0.931033 0.595978
f 258/-1 272/-2 262/-3
vt 0.917538 0.531413
vt 0.910417 0.589034
vt 0.941154 0.565245
f 262/-1 272/-2 271/-3
vt 0.941154 0.565245
vt 0.910417 0.589034
vt 0.917538 0.531413
f 271/-1 272/-2 261/-3
vt 0.941154 0.565245
vt 0.931033 0.595978
vt 0.910417 0.589034
f 272/-1 257/-2 261/-3
vt 0.971891 0.549413
vt 0.962275 0.562245
vt 0.977795 0.629338
f 273/-1 263/-2 270/-3
vt 0.962275 0.562245
vt 0.964275 0.611922
vt 0.977795 0.629338
f 273/-1 259/-2 263/-3
vt 0.962275 0.562245
vt 0.977795 0.629338
vt 0.964275 0.611922
f 256/-1 273/-2 260/-3
vt 0.962275 0.562245
vt 0.971891 0.549413
vt 0.977795 0.629338
f 273/-1 270/-2 260/-3

#	             End of file
